190.196.189.35.bc.googleusercontent.com
195-154-182-111.rev.poneytelecom.eu
195-154-183-190.rev.poneytelecom.eu
195-154-189-62.rev.poneytelecom.eu
195-154-252-100.rev.poneytelecom.eu
195-154-253-105.rev.poneytelecom.eu
29.ip-92-222-74.eu
62-210-146-49.rev.poneytelecom.eu
62-210-181-123.rev.poneytelecom.eu
62-210-88-4.rev.poneytelecom.eu
95-24-35-196.broadband.corbina.ru
95-24-37-130.broadband.corbina.ru
95-24-52-60.broadband.corbina.ru
fair.kopeisk.org
h228-115.fcsrv.net
h252-115.fcsrv.net
khabra.ratetand.com
ptr.wookey.co.uk
sub.kopeisk.org